"food","clothes"
"Mexico","Vietnam"
"Chile","Vietnam"
"United States","China"
"Switzerland","China"
"U.S","Indonesia"
"Brazil","Guatemala"
NA,"Vietnam"
NA,"Pakistan"
NA,"Nicaragua"
NA,"Indonesia"
