"food","clothes"
"United States of America","India"
"United States of America","Nicaragua"
"United States of America","Bangladesh"
"Ecuador","Vietnam"
"Mexico","China"
"Costa Rica","China"
"Costa Rica","China"
"United States of America","China"
"United States of America","China"
"France","United States of America"
