"food","clothes"
"United States of America","Vietnam"
"Brazil","Indonesia"
"Canada","China"
"Puerto Rico","Honduras"
"China","Honduras"
"Japan","China"
"South Korea","Peru"
"Austria","Vietnam"
"Honduras","Mexico"
